{
  "policy": "all", 
  "policy_day": "1", 
  "log_level": "DEBUG", 
  "silent": "False", 
  "dry_run": "False", 
  "policy_size": "100000", 
  "trash_size": "1000000", 
  "auto_trash_clean": "False", 
  "trash": "~/Trash/"
}
